{
  "project_info": {
    "project_number": "287626264172",
    "firebase_url": "https://television-mexiquense.firebaseio.com",
    "project_id": "television-mexiquense",
    "storage_bucket": "television-mexiquense.appspot.com"
  },
  "client": [
    {
      "client_info": {
        "mobilesdk_app_id": "1:287626264172:android:973284045d4ade67ad2249",
        "android_client_info": {
          "package_name": "com.radiotvmx.hyperiondg"
        }
      },
      "oauth_client": [
        {
          "client_id": "287626264172-gkig4pd1ureh5jhudg1lap6jdqmqnu8d.apps.googleusercontent.com",
          "client_type": 3
        }
      ],
      "api_key": [
        {
          "current_key": "AIzaSyA74Q2VAcuqaqnsKq5yp6VsWX8fUrgY0d0"
        }
      ],
      "services": {
        "appinvite_service": {
          "other_platform_oauth_client": [
            {
              "client_id": "287626264172-gkig4pd1ureh5jhudg1lap6jdqmqnu8d.apps.googleusercontent.com",
              "client_type": 3
            }
          ]
        }
      }
    }
  ],
  "configuration_version": "1"
}