<svg id="boton-eliminar" xmlns="http://www.w3.org/2000/svg" width="52.321" height="52.321" viewBox="0 0 52.321 52.321">
  <path id="Trazado_1265" data-name="Trazado 1265" d="M26.161,0A26.161,26.161,0,1,0,52.321,26.161,26.19,26.19,0,0,0,26.161,0Zm0,47.836A21.676,21.676,0,1,1,47.837,26.161,21.7,21.7,0,0,1,26.161,47.836Z" fill="white"/>
  <path id="Trazado_1266" data-name="Trazado 1266" d="M72.124,51.883a2.241,2.241,0,0,0-3.171,0L62,58.836l-6.952-6.953a2.242,2.242,0,0,0-3.171,3.171l6.952,6.952-6.952,6.953a2.242,2.242,0,1,0,3.171,3.171L62,65.177l6.952,6.952a2.242,2.242,0,1,0,3.171-3.171l-6.952-6.952,6.952-6.952A2.242,2.242,0,0,0,72.124,51.883Z" transform="translate(-35.84 -35.844)" fill="white"/>
</svg>
