<svg id="crear-nuevo-boton-de-lapiz" xmlns="http://www.w3.org/2000/svg" width="61.95" height="61.95" viewBox="0 0 61.95 61.95">
  <g id="create" transform="translate(0 0)">
    <path id="Trazado_1270" data-name="Trazado 1270" d="M0,48.871V61.949H13.078l37.858-38.2L37.858,10.668Zm60.917-35.1a3.327,3.327,0,0,0,0-4.818L53,1.031a3.327,3.327,0,0,0-4.818,0L41.988,7.226,55.067,20.3Z" transform="translate(0 0.001)" fill="white"/>
  </g>
</svg>
